# Blender v2.79 (sub 0) OBJ File: 'cozmo_head.blend'
# www.blender.org
mtllib cozmo_head.mtl
o front_Screen_geo_front_Screen_geo.001
v 0.017734 0.004684 0.005569
v 0.017948 0.004748 0.002843
v 0.017494 0.007241 0.002773
v 0.017342 0.007101 0.005422
v 0.018108 -0.004119 0.005581
v 0.018396 -0.004182 0.002849
v 0.018460 -0.002619 0.002896
v 0.018183 -0.002595 0.005675
v 0.017155 0.004583 0.009937
v 0.017435 0.004621 0.008083
v 0.017132 0.006863 0.007851
v 0.016929 0.006669 0.009631
v 0.017771 -0.002591 0.008239
v 0.017684 -0.004057 0.008103
v 0.017481 -0.000163 0.010194
v 0.017826 -0.000163 0.008295
v 0.017689 0.002265 0.008238
v 0.017370 0.002271 0.010129
v 0.018197 -0.000163 0.005718
v 0.018454 -0.000163 0.002920
v 0.018274 0.002293 0.002897
v 0.018032 0.002269 0.005675
v 0.017292 -0.006392 0.007875
v 0.017325 -0.006629 0.005439
v 0.017734 0.004684 -0.005570
v 0.017342 0.007101 -0.005422
v 0.017494 0.007241 -0.002773
v 0.017948 0.004748 -0.002844
v 0.018108 -0.004119 -0.005581
v 0.018183 -0.002595 -0.005675
v 0.018460 -0.002619 -0.002897
v 0.018396 -0.004182 -0.002849
v 0.017155 0.004583 -0.009937
v 0.016929 0.006669 -0.009630
v 0.017132 0.006863 -0.007851
v 0.017435 0.004621 -0.008083
v 0.017684 -0.004057 -0.008103
v 0.017771 -0.002591 -0.008239
v 0.017481 -0.000163 -0.010194
v 0.017370 0.002271 -0.010129
v 0.017689 0.002265 -0.008238
v 0.017826 -0.000163 -0.008295
v 0.018197 -0.000163 -0.005718
v 0.018032 0.002269 -0.005676
v 0.018274 0.002293 -0.002897
v 0.018454 -0.000163 -0.002919
v 0.017325 -0.006629 -0.005439
v 0.017292 -0.006392 -0.007875
v 0.017451 -0.009276 0.005304
v 0.017082 -0.008868 0.007668
v 0.016945 -0.009525 0.007666
v 0.017312 -0.010002 0.005291
v 0.016800 0.007915 0.009035
v 0.016859 0.008542 0.007668
v 0.016715 0.009197 0.007670
v 0.016681 0.008267 0.009460
v 0.016886 -0.008242 0.009034
v 0.017086 -0.006198 0.009658
v 0.016927 -0.006198 0.010379
v 0.016721 -0.008594 0.009458
v 0.017229 0.002280 0.010875
v 0.017331 -0.000163 0.010941
v 0.016986 0.008950 0.005304
v 0.017080 0.009159 0.002715
v 0.016892 0.009912 0.002707
v 0.016817 0.009674 0.005293
v 0.017975 -0.009541 -0.000000
v 0.017801 -0.009487 0.002715
v 0.017679 -0.010239 0.002704
v 0.017866 -0.010294 -0.000000
v 0.016812 0.006665 0.010326
v 0.017023 0.004595 0.010669
v 0.017290 -0.004020 0.009960
v 0.017387 -0.002597 0.010129
v 0.017220 -0.002605 0.010876
v 0.017117 -0.004034 0.010714
v 0.017118 0.009214 -0.000000
v 0.017080 0.009159 -0.002716
v 0.016892 0.009912 -0.002707
v 0.016925 0.009973 -0.000000
v 0.016986 0.008950 -0.005303
v 0.016859 0.008542 -0.007668
v 0.016715 0.009197 -0.007669
v 0.016817 0.009674 -0.005294
v 0.016800 0.007915 -0.009035
v 0.016812 0.006665 -0.010327
v 0.016681 0.008267 -0.009460
v 0.017387 -0.002597 -0.010129
v 0.017220 -0.002605 -0.010875
v 0.017331 -0.000163 -0.010941
v 0.017229 0.002280 -0.010874
v 0.017023 0.004595 -0.010670
v 0.017290 -0.004020 -0.009961
v 0.017086 -0.006198 -0.009659
v 0.016927 -0.006198 -0.010379
v 0.017117 -0.004034 -0.010714
v 0.016886 -0.008242 -0.009034
v 0.017082 -0.008868 -0.007668
v 0.016945 -0.009525 -0.007666
v 0.016721 -0.008594 -0.009458
v 0.017451 -0.009276 -0.005304
v 0.017801 -0.009487 -0.002716
v 0.017679 -0.010239 -0.002705
v 0.017312 -0.010002 -0.005291
v 0.017051 -0.010389 0.005468
v 0.016676 -0.009903 0.007948
v 0.016003 -0.010776 0.008643
v 0.016429 -0.011305 0.005943
v 0.016398 0.008608 0.009833
v 0.016437 0.009573 0.007951
v 0.015746 0.010445 0.008650
v 0.015710 0.009388 0.010705
v 0.016432 -0.008936 0.009828
v 0.016672 -0.006462 0.010812
v 0.015981 -0.007084 0.011772
v 0.015743 -0.009716 0.010699
v 0.017063 -0.000162 0.011359
v 0.016963 0.002355 0.011290
v 0.016332 0.002571 0.012292
v 0.016437 -0.000162 0.012368
v 0.016533 0.010059 0.005473
v 0.016608 0.010304 0.002792
v 0.015944 0.011238 0.003032
v 0.015864 0.010974 0.005949
v 0.017616 -0.010695 -0.000000
v 0.017426 -0.010636 0.002789
v 0.016835 -0.011571 0.003028
v 0.017038 -0.011635 -0.000000
v 0.016754 0.004752 0.011075
v 0.016548 0.006921 0.010732
v 0.015865 0.007545 0.011691
v 0.016106 0.005180 0.012057
v 0.016843 -0.004189 0.011139
v 0.016950 -0.002678 0.011289
v 0.016316 -0.002894 0.012290
v 0.016190 -0.004618 0.012121
v 0.016640 0.010363 -0.000000
v 0.016608 0.010304 -0.002793
v 0.015944 0.011238 -0.003032
v 0.015975 0.011301 -0.000000
v 0.016533 0.010059 -0.005473
v 0.016437 0.009573 -0.007951
v 0.015746 0.010445 -0.008650
v 0.015864 0.010974 -0.005949
v 0.016398 0.008608 -0.009832
v 0.016548 0.006921 -0.010732
v 0.015865 0.007545 -0.011691
v 0.015710 0.009388 -0.010705
v 0.017063 -0.000162 -0.011359
v 0.016950 -0.002678 -0.011288
v 0.016316 -0.002894 -0.012290
v 0.016437 -0.000162 -0.012368
v 0.016754 0.004752 -0.011075
v 0.016963 0.002355 -0.011289
v 0.016332 0.002571 -0.012292
v 0.016106 0.005180 -0.012058
v 0.016843 -0.004189 -0.011139
v 0.016672 -0.006462 -0.010812
v 0.015981 -0.007084 -0.011772
v 0.016190 -0.004618 -0.012121
v 0.016432 -0.008936 -0.009829
v 0.016676 -0.009903 -0.007948
v 0.016003 -0.010776 -0.008644
v 0.015743 -0.009716 -0.010699
v 0.017051 -0.010389 -0.005468
v 0.017426 -0.010636 -0.002790
v 0.016835 -0.011570 -0.003028
v 0.016429 -0.011305 -0.005944
v 0.016066 -0.012745 -0.003340
v 0.016291 -0.012813 -0.000000
v 0.015613 -0.012446 -0.006549
v 0.015153 -0.011859 -0.009523
v 0.014867 -0.010696 -0.011797
v 0.015121 -0.007869 -0.012967
v 0.015344 -0.005162 -0.013365
v 0.015510 0.002853 -0.013559
v 0.015628 -0.000161 -0.013639
v 0.015259 0.005725 -0.013299
v 0.015492 -0.003174 -0.013556
v 0.014999 0.008329 -0.012883
v 0.014830 0.010368 -0.011803
v 0.014868 0.011530 -0.009531
v 0.014990 0.012115 -0.006556
v 0.015080 0.012410 -0.003343
v 0.015118 0.012480 -0.000000
v 0.015492 -0.003174 0.013556
v 0.015628 -0.000161 0.013639
v 0.015344 -0.005162 0.013365
v 0.014999 0.008329 0.012883
v 0.014830 0.010368 0.011803
v 0.015259 0.005725 0.013299
v 0.016066 -0.012745 0.003341
v 0.015613 -0.012446 0.006549
v 0.015080 0.012410 0.003343
v 0.014990 0.012115 0.006557
v 0.015510 0.002853 0.013558
v 0.015121 -0.007869 0.012967
v 0.014867 -0.010696 0.011797
v 0.014868 0.011530 0.009531
v 0.015153 -0.011859 0.009523
v 0.017006 -0.007065 -0.002782
v 0.018369 0.002308 -0.000000
v 0.018034 0.004779 -0.000000
v 0.018552 -0.000163 -0.000000
v 0.018565 -0.002634 -0.000000
v 0.018508 -0.004213 -0.000000
v 0.017557 0.007285 -0.000000
v 0.017006 -0.007065 0.002782
v 0.016633 -0.008682 0.001298
v 0.016633 -0.007376 0.001585
v 0.016633 -0.008957 -0.000000
v 0.016633 -0.008682 -0.001297
v 0.016633 -0.007376 -0.001584
v 0.016633 -0.006148 -0.001361
v 0.016633 -0.005921 -0.000000
v 0.016633 -0.006148 0.001361
v 0.014666 -0.008665 0.001280
v 0.014666 -0.007377 0.001563
v 0.014666 -0.008936 -0.000000
v 0.014666 -0.008665 -0.001279
v 0.014666 -0.007377 -0.001563
v 0.014666 -0.006165 -0.001342
v 0.014666 -0.005942 -0.000000
v 0.014666 -0.006165 0.001343
v 0.014666 -0.007416 -0.000000
v -0.012016 -0.005845 0.017150
v -0.010248 -0.010094 0.017150
v 0.000001 0.000001 0.017150
v -0.012679 0.000001 0.017150
v -0.005846 -0.012016 0.017150
v 0.000001 -0.012577 0.017150
v 0.005847 -0.012016 0.017150
v 0.009145 -0.009941 0.017150
v 0.010567 -0.005845 0.017150
v 0.010654 0.000001 0.017150
v 0.010567 0.005848 0.017150
v 0.008992 0.009791 0.017150
v 0.005847 0.012018 0.017150
v 0.000001 0.012631 0.017150
v -0.005846 0.012018 0.017150
v -0.009483 0.009791 0.017150
v -0.012016 0.005848 0.017150
v 0.012228 -0.006660 0.017150
v 0.010524 -0.011325 0.017150
v 0.011420 -0.012230 0.016197
v 0.013280 -0.007260 0.016193
v 0.006651 -0.013687 0.017150
v 0.007247 -0.014744 0.016193
v 0.011622 -0.014068 0.011051
v 0.008781 -0.016704 0.009995
v 0.009019 -0.017157 -0.000000
v 0.012004 -0.014449 -0.000000
v 0.013597 -0.008794 0.011843
v 0.013597 -0.009032 -0.000000
v 0.006651 0.013683 0.017150
v 0.010350 0.011146 0.017150
v 0.011256 0.012058 0.016210
v 0.007247 0.014737 0.016193
v 0.012228 0.006655 0.017150
v 0.013280 0.007252 0.016193
v 0.013204 0.014060 0.010933
v 0.014204 0.008786 0.011843
v 0.014204 0.009025 -0.000000
v 0.013586 0.014441 -0.000000
v 0.008781 0.016696 0.009995
v 0.009019 0.017149 -0.000000
v -0.013691 0.006655 0.017150
v -0.010806 0.011146 0.017150
v -0.011743 0.012053 0.016227
v -0.014750 0.007252 0.016193
v -0.006664 0.013683 0.017150
v -0.007266 0.014737 0.016193
v -0.014073 0.014060 0.010933
v -0.008800 0.016696 0.009995
v -0.009038 0.017149 -0.000000
v -0.014455 0.014441 -0.000000
v -0.016710 0.008786 0.011843
v -0.017163 0.009025 -0.000000
v -0.006664 -0.013687 0.017150
v -0.011677 -0.011499 0.017150
v -0.012561 -0.012395 0.016180
v -0.007266 -0.014744 0.016193
v -0.013691 -0.006660 0.017150
v -0.014750 -0.007260 0.016193
v -0.014073 -0.014068 0.011051
v -0.016710 -0.008794 0.011843
v -0.017163 -0.009032 -0.000000
v -0.014455 -0.014449 -0.000000
v -0.008800 -0.016704 0.009995
v -0.009038 -0.017157 -0.000000
v 0.013526 -0.000004 0.016163
v 0.012421 -0.000002 0.017150
v 0.014204 -0.000004 -0.000000
v 0.014204 -0.000004 0.012165
v -0.000010 0.015498 0.016171
v -0.000006 0.014380 0.017150
v -0.000010 0.018052 -0.000000
v -0.000010 0.017575 0.009647
v -0.015566 -0.000004 0.016168
v -0.014446 -0.000002 0.017150
v -0.018065 -0.000004 -0.000000
v -0.017589 -0.000004 0.012165
v -0.000010 -0.015452 0.016174
v -0.000006 -0.014326 0.017150
v -0.000010 -0.018060 -0.000000
v -0.000010 -0.017583 0.009647
v -0.012016 -0.005845 -0.017150
v -0.012679 0.000001 -0.017150
v 0.000001 0.000001 -0.017150
v -0.010248 -0.010094 -0.017150
v -0.005846 -0.012016 -0.017150
v 0.000001 -0.012577 -0.017150
v 0.005847 -0.012016 -0.017150
v 0.009145 -0.009941 -0.017150
v 0.010567 -0.005845 -0.017150
v 0.010654 0.000001 -0.017150
v 0.010567 0.005848 -0.017150
v 0.008992 0.009791 -0.017150
v 0.005847 0.012018 -0.017150
v 0.000001 0.012631 -0.017150
v -0.005846 0.012018 -0.017150
v -0.009483 0.009791 -0.017150
v -0.012016 0.005848 -0.017150
v 0.012228 -0.006660 -0.017150
v 0.013280 -0.007260 -0.016193
v 0.011420 -0.012230 -0.016197
v 0.010524 -0.011325 -0.017150
v 0.007247 -0.014744 -0.016193
v 0.006651 -0.013687 -0.017150
v 0.011622 -0.014068 -0.011051
v 0.008781 -0.016704 -0.009995
v 0.013597 -0.008794 -0.011843
v 0.006651 0.013683 -0.017150
v 0.007247 0.014737 -0.016193
v 0.011256 0.012058 -0.016210
v 0.010350 0.011146 -0.017150
v 0.013280 0.007252 -0.016193
v 0.012228 0.006655 -0.017150
v 0.013204 0.014060 -0.010933
v 0.014204 0.008786 -0.011843
v 0.008781 0.016696 -0.009995
v -0.013691 0.006655 -0.017150
v -0.014750 0.007252 -0.016193
v -0.011743 0.012053 -0.016227
v -0.010806 0.011146 -0.017150
v -0.007266 0.014737 -0.016193
v -0.006664 0.013683 -0.017150
v -0.014073 0.014060 -0.010933
v -0.008800 0.016696 -0.009995
v -0.016710 0.008786 -0.011843
v -0.006664 -0.013687 -0.017150
v -0.007266 -0.014744 -0.016193
v -0.012561 -0.012395 -0.016180
v -0.011677 -0.011499 -0.017150
v -0.014750 -0.007260 -0.016193
v -0.013691 -0.006660 -0.017150
v -0.014073 -0.014068 -0.011051
v -0.016710 -0.008794 -0.011843
v -0.008800 -0.016704 -0.009995
v 0.012421 -0.000002 -0.017150
v 0.013526 -0.000004 -0.016163
v 0.014204 -0.000004 -0.012165
v -0.000006 0.014380 -0.017150
v -0.000010 0.015498 -0.016171
v -0.000010 0.017575 -0.009647
v -0.014446 -0.000002 -0.017150
v -0.015566 -0.000004 -0.016168
v -0.017589 -0.000004 -0.012165
v -0.000006 -0.014326 -0.017150
v -0.000010 -0.015452 -0.016174
v -0.000010 -0.017583 -0.009647
vt 0.500000 0.000000
vt 0.000000 0.500000
vt 0.000000 0.000000
vt 0.000000 0.000000
vt 0.500000 0.500000
vt 0.000000 0.500000
vt 0.000000 0.000000
vt 0.500000 0.500000
vt 0.000000 0.500000
vt 0.500000 0.000000
vt 0.000000 0.500000
vt 0.000000 0.000000
vt 0.000000 0.000000
vt 0.500000 0.500000
vt 0.000000 0.500000
vt 0.500000 0.000000
vt 0.000000 0.500000
vt 0.000000 0.000000
vt 0.500000 0.000000
vt 0.000000 0.500000
vt 0.000000 0.000000
vt 0.000000 0.000000
vt 0.500000 0.500000
vt 0.000000 0.500000
vt 0.500000 0.000000
vt 0.000000 0.500000
vt 0.000000 0.000000
vt 0.500000 0.000000
vt 0.000000 0.500000
vt 0.000000 0.000000
vt 0.000000 0.000000
vt 0.500000 0.500000
vt 0.000000 0.500000
vt 0.500000 0.000000
vt 0.000000 0.500000
vt 0.000000 0.000000
vt 0.000000 0.000000
vt 0.500000 0.500000
vt 0.000000 0.500000
vt 0.500000 0.000000
vt 0.000000 0.500000
vt 0.000000 0.000000
vt 0.000000 0.000000
vt 0.500000 0.500000
vt 0.000000 0.500000
vt 0.000000 0.000000
vt 0.500000 0.500000
vt 0.000000 0.500000
vt 1.000000 1.000000
vt 0.500000 1.000000
vt 1.000000 0.500000
vt 0.500000 0.000000
vt 1.000000 0.000000
vt 0.000000 1.000000
vt 1.000000 1.000000
vt 0.500000 1.000000
vt 1.000000 0.500000
vt 0.500000 0.000000
vt 1.000000 0.000000
vt 0.000000 1.000000
vt 0.500000 1.000000
vt 1.000000 0.500000
vt 1.000000 1.000000
vt 0.500000 0.500000
vt 1.000000 0.000000
vt 0.000000 1.000000
vt 1.000000 1.000000
vt 0.500000 1.000000
vt 1.000000 0.500000
vt 0.500000 0.000000
vt 1.000000 0.000000
vt 0.000000 1.000000
vt 0.500000 1.000000
vt 1.000000 0.500000
vt 1.000000 1.000000
vt 0.500000 0.500000
vt 1.000000 0.000000
vt 0.000000 1.000000
vt 1.000000 1.000000
vt 0.500000 1.000000
vt 1.000000 0.500000
vt 0.500000 0.000000
vt 1.000000 0.000000
vt 0.000000 1.000000
vt 0.500000 1.000000
vt 1.000000 0.500000
vt 1.000000 1.000000
vt 0.500000 0.500000
vt 1.000000 0.000000
vt 0.000000 1.000000
vt 0.500000 1.000000
vt 1.000000 0.500000
vt 1.000000 1.000000
vt 0.500000 0.500000
vt 1.000000 0.000000
vt 0.000000 1.000000
vt 1.000000 1.000000
vt 0.500000 1.000000
vt 1.000000 0.500000
vt 0.500000 0.000000
vt 1.000000 0.000000
vt 0.000000 1.000000
vt 0.500000 1.000000
vt 1.000000 0.500000
vt 1.000000 1.000000
vt 0.500000 0.500000
vt 1.000000 0.000000
vt 0.000000 1.000000
vt 0.500000 1.000000
vt 1.000000 0.500000
vt 1.000000 1.000000
vt 0.500000 0.500000
vt 1.000000 0.000000
vt 0.000000 1.000000
vt 1.000000 1.000000
vt 0.500000 1.000000
vt 1.000000 0.500000
vt 0.500000 0.000000
vt 1.000000 0.000000
vt 0.000000 1.000000
vt 0.500000 1.000000
vt 1.000000 0.500000
vt 1.000000 1.000000
vt 0.500000 0.500000
vt 1.000000 0.000000
vt 0.000000 1.000000
vt 1.000000 1.000000
vt 0.500000 1.000000
vt 1.000000 0.500000
vt 0.500000 0.000000
vt 1.000000 0.000000
vt 0.000000 1.000000
vt 1.000000 1.000000
vt 0.500000 1.000000
vt 1.000000 0.500000
vt 0.500000 0.000000
vt 1.000000 0.000000
vt 0.000000 1.000000
vt 0.500000 1.000000
vt 1.000000 0.500000
vt 1.000000 1.000000
vt 0.500000 0.500000
vt 1.000000 0.000000
vt 0.000000 1.000000
vt 0.000000 0.000000
vt 1.000000 1.000000
vt 0.000000 1.000000
vt 1.000000 0.000000
vt 0.000000 1.000000
vt 0.000000 0.000000
vt 0.000000 0.000000
vt 1.000000 1.000000
vt 0.000000 1.000000
vt 1.000000 0.000000
vt 0.000000 1.000000
vt 0.000000 0.000000
vt 0.000000 0.000000
vt 1.000000 1.000000
vt 0.000000 1.000000
vt 1.000000 0.000000
vt 0.000000 1.000000
vt 0.000000 0.000000
vt 1.000000 0.000000
vt 0.000000 1.000000
vt 0.000000 0.000000
vt 0.000000 0.000000
vt 1.000000 1.000000
vt 0.000000 1.000000
vt 0.500000 1.000000
vt 0.000000 0.000000
vt 1.000000 0.000000
vt 0.000000 0.000000
vt 1.000000 0.000000
vt 0.000000 0.000000
vt 1.000000 0.000000
vt 0.000000 0.000000
vt 1.000000 0.000000
vt 1.000000 0.000000
vt 1.000000 1.000000
vt 1.000000 0.000000
vt 1.000000 1.000000
vt 1.000000 0.000000
vt 1.000000 1.000000
vt 1.000000 1.000000
vt 1.000000 0.000000
vt 0.000000 0.000000
vt 0.000000 0.000000
vt 0.000000 0.000000
vt 0.000000 0.000000
vt 0.562500 0.187500
vt 0.500000 0.218750
vt 0.500000 0.187500
vt 0.500000 0.062500
vt 0.562500 0.093750
vt 0.500000 0.093750
vt 0.437500 0.187500
vt 0.375000 0.218750
vt 0.375000 0.187500
vt 0.437500 0.062500
vt 0.437500 0.125000
vt 0.375000 0.156250
vt 0.375000 0.125000
vt 0.562500 0.125000
vt 0.500000 0.156250
vt 0.500000 0.125000
vt 0.437500 0.031250
vt 0.500000 0.031250
vt 0.500000 0.218750
vt 0.562500 0.187500
vt 0.500000 0.187500
vt 0.500000 0.062500
vt 0.562500 0.093750
vt 0.562500 0.062500
vt 0.375000 0.218750
vt 0.437500 0.187500
vt 0.375000 0.187500
vt 0.437500 0.062500
vt 0.500000 0.093750
vt 0.375000 0.156250
vt 0.437500 0.125000
vt 0.375000 0.125000
vt 0.500000 0.156250
vt 0.562500 0.125000
vt 0.500000 0.125000
vt 0.437500 0.031250
vt 0.000000 0.000000
vt 0.500000 0.500000
vt 0.000000 0.500000
vt 0.500000 0.000000
vt 0.000000 0.500000
vt 0.000000 0.000000
vt 0.500000 0.000000
vt 0.000000 0.500000
vt 0.000000 0.000000
vt 0.000000 0.000000
vt 0.500000 0.500000
vt 0.000000 0.500000
vt 0.500000 0.000000
vt 0.000000 0.500000
vt 0.000000 0.000000
vt 0.000000 0.000000
vt 0.500000 0.500000
vt 0.000000 0.500000
vt 0.000000 0.000000
vt 0.500000 0.500000
vt 0.000000 0.500000
vt 0.500000 0.000000
vt 0.000000 0.500000
vt 0.000000 0.000000
vt 0.000000 0.000000
vt 0.500000 0.500000
vt 0.000000 0.500000
vt 0.000000 0.000000
vt 0.500000 0.500000
vt 0.000000 0.500000
vt 0.500000 0.000000
vt 0.000000 0.500000
vt 0.000000 0.000000
vt 0.000000 0.000000
vt 0.500000 0.500000
vt 0.000000 0.500000
vt 0.500000 0.000000
vt 0.000000 0.500000
vt 0.000000 0.000000
vt 0.000000 0.000000
vt 0.500000 0.500000
vt 0.000000 0.500000
vt 0.500000 0.000000
vt 0.000000 0.500000
vt 0.000000 0.000000
vt 0.500000 0.000000
vt 0.000000 0.500000
vt 0.000000 0.000000
vt 0.500000 0.500000
vt 1.000000 1.000000
vt 0.500000 1.000000
vt 1.000000 0.000000
vt 1.000000 0.500000
vt 0.000000 1.000000
vt 0.500000 0.500000
vt 1.000000 1.000000
vt 0.500000 1.000000
vt 1.000000 0.000000
vt 1.000000 0.500000
vt 0.000000 1.000000
vt 0.500000 1.000000
vt 1.000000 0.500000
vt 1.000000 1.000000
vt 0.500000 0.000000
vt 1.000000 0.000000
vt 0.000000 1.000000
vt 0.500000 0.500000
vt 1.000000 1.000000
vt 0.500000 1.000000
vt 1.000000 0.000000
vt 1.000000 0.500000
vt 0.000000 1.000000
vt 0.500000 1.000000
vt 1.000000 0.500000
vt 1.000000 1.000000
vt 0.500000 0.000000
vt 1.000000 0.000000
vt 0.000000 1.000000
vt 0.500000 0.500000
vt 1.000000 1.000000
vt 0.500000 1.000000
vt 1.000000 0.000000
vt 1.000000 0.500000
vt 0.000000 1.000000
vt 0.500000 1.000000
vt 1.000000 0.500000
vt 1.000000 1.000000
vt 0.500000 0.000000
vt 1.000000 0.000000
vt 0.000000 1.000000
vt 0.500000 1.000000
vt 1.000000 0.500000
vt 1.000000 1.000000
vt 0.500000 0.000000
vt 1.000000 0.000000
vt 0.000000 1.000000
vt 0.500000 0.500000
vt 1.000000 1.000000
vt 0.500000 1.000000
vt 1.000000 0.000000
vt 1.000000 0.500000
vt 0.000000 1.000000
vt 0.500000 1.000000
vt 1.000000 0.500000
vt 1.000000 1.000000
vt 0.500000 0.000000
vt 1.000000 0.000000
vt 0.000000 1.000000
vt 0.500000 1.000000
vt 1.000000 0.500000
vt 1.000000 1.000000
vt 0.500000 0.000000
vt 1.000000 0.000000
vt 0.000000 1.000000
vt 0.500000 0.500000
vt 1.000000 1.000000
vt 0.500000 1.000000
vt 1.000000 0.000000
vt 1.000000 0.500000
vt 0.000000 1.000000
vt 0.500000 1.000000
vt 1.000000 0.500000
vt 1.000000 1.000000
vt 0.500000 0.000000
vt 1.000000 0.000000
vt 0.000000 1.000000
vt 0.500000 0.500000
vt 1.000000 1.000000
vt 0.500000 1.000000
vt 1.000000 0.000000
vt 1.000000 0.500000
vt 0.000000 1.000000
vt 0.500000 0.500000
vt 1.000000 1.000000
vt 0.500000 1.000000
vt 1.000000 0.000000
vt 1.000000 0.500000
vt 0.000000 1.000000
vt 0.500000 1.000000
vt 1.000000 0.500000
vt 1.000000 1.000000
vt 0.500000 0.000000
vt 1.000000 0.000000
vt 0.000000 1.000000
vt 0.500000 0.031250
vt 0.562500 0.031250
vt 0.500000 0.000000
vt 0.375000 0.000000
vt 0.375000 0.031250
vt 0.437500 0.000000
vt 0.375000 0.062500
vt 0.625000 0.156250
vt 0.625000 0.187500
vt 0.562500 0.156250
vt 0.625000 0.125000
vt 0.437500 0.156250
vt 0.375000 0.093750
vt 0.437500 0.093750
vt 0.437500 0.250000
vt 0.500000 0.250000
vt 0.437500 0.218750
vt 0.375000 0.250000
vt 0.625000 0.093750
vt 0.625000 0.062500
vt 0.625000 0.218750
vt 0.562500 0.250000
vt 0.625000 0.250000
vt 0.562500 0.218750
vt 0.562500 0.062500
vt 0.562500 0.031250
vt 0.500000 0.000000
vt 0.562500 0.000000
vt 0.375000 0.000000
vt 0.437500 0.000000
vt 0.375000 0.031250
vt 0.375000 0.062500
vt 0.562500 0.156250
vt 0.437500 0.156250
vt 0.375000 0.093750
vt 0.437500 0.093750
vt 0.437500 0.250000
vt 0.500000 0.250000
vt 0.437500 0.218750
vt 0.375000 0.250000
vt 0.562500 0.250000
vt 0.562500 0.218750
vt 0.562500 0.000000
vt 0.562500 0.031250
vt 0.625000 0.000000
vt 0.562500 0.000000
vt 0.625000 0.000000
vt 0.562500 0.000000
vt 0.562500 0.062500
vt 0.562500 0.031250
vt 0.562500 0.062500
vt 0.625000 0.062500
vt 0.000000 0.000000
vt 0.000000 0.000000
vt 0.000000 0.000000
vt 0.000000 0.000000
vt 0.000000 0.000000
vt 0.000000 0.000000
vt 0.000000 0.000000
vt 0.000000 0.000000
vt 0.000000 0.000000
vt 0.000000 0.000000
vt 0.000000 0.000000
vt 0.000000 0.000000
vt 0.000000 0.000000
vt 0.000000 0.000000
vt 0.000000 0.000000
vt 0.000000 0.000000
vt 0.000000 0.000000
vt 0.000000 0.000000
vt 0.000000 0.000000
vt 0.000000 0.000000
vt 0.000000 0.000000
vt 0.000000 0.000000
vt 0.000000 0.000000
vt 0.000000 0.000000
vt 0.000000 0.000000
vt 0.000000 0.000000
vt 0.000000 0.000000
vt 0.000000 0.000000
vt 0.000000 0.000000
vt 0.000000 0.000000
vt 0.000000 0.000000
vt 0.000000 0.000000
vt 0.000000 0.000000
vt 0.000000 0.000000
vt 0.000000 0.000000
vt 0.000000 0.000000
vt 0.000000 0.000000
vt 0.000000 0.000000
vt 0.000000 0.000000
vt 0.000000 0.000000
vt 0.000000 0.000000
vt 0.000000 0.000000
vt 0.000000 0.000000
vt 0.000000 0.000000
vt 0.000000 0.000000
vt 0.000000 0.000000
vt 0.000000 0.000000
vt 0.000000 0.000000
vt 0.000000 0.000000
vt 0.000000 0.000000
vt 0.000000 0.000000
vt 0.000000 0.000000
vt 0.000000 0.000000
vt 0.000000 0.000000
vt 0.000000 0.000000
vt 0.000000 0.000000
vt 0.000000 0.000000
vt 0.000000 0.000000
vt 0.000000 0.000000
vt 0.000000 0.000000
vt 0.000000 0.000000
vt 0.000000 0.000000
vt 0.000000 0.000000
vt 0.000000 0.000000
vt 0.000000 0.000000
vt 0.000000 0.000000
vt 0.000000 0.000000
vt 0.000000 0.000000
vt 0.000000 0.000000
vt 0.000000 0.000000
vt 0.000000 0.000000
vt 0.000000 0.000000
vt 0.000000 0.000000
vt 0.000000 0.000000
vt 0.000000 0.000000
vt 0.000000 0.000000
vt 0.000000 0.000000
vt 0.000000 0.000000
vt 0.000000 0.000000
vt 0.000000 0.000000
vt 0.000000 0.000000
vt 0.000000 0.000000
vt 0.000000 0.000000
vt 0.000000 0.000000
vt 0.000000 0.000000
vt 0.000000 0.000000
vt 0.000000 0.000000
vt 0.000000 0.000000
vt 0.000000 0.000000
vt 0.000000 0.000000
vt 0.000000 0.000000
vt 0.000000 0.000000
vt 0.000000 0.000000
vt 0.000000 0.000000
vt 0.000000 0.000000
vt 0.000000 0.000000
vt 0.000000 0.000000
vt 0.000000 0.000000
vt 0.000000 0.000000
vt 0.000000 0.000000
vt 0.000000 0.000000
vt 0.000000 0.000000
vt 0.000000 0.000000
vt 0.000000 0.000000
vt 0.000000 0.000000
vt 0.000000 0.000000
vt 0.000000 0.000000
vt 0.000000 0.000000
vt 0.000000 0.000000
vt 0.000000 0.000000
vt 0.000000 0.000000
vt 0.000000 0.000000
vt 0.000000 0.000000
vt 0.000000 0.000000
vt 0.000000 0.000000
vt 0.000000 0.000000
vt 0.000000 0.000000
vt 0.000000 0.000000
vt 0.000000 0.000000
vt 0.000000 0.000000
vt 0.000000 0.000000
vt 0.000000 0.000000
vt 0.000000 0.000000
vt 0.000000 0.000000
vt 0.000000 0.000000
vt 0.000000 0.000000
vt 0.000000 0.000000
vt 0.000000 0.000000
vt 0.000000 0.000000
vt 0.000000 0.000000
vt 0.000000 0.000000
vt 0.000000 0.000000
vt 0.000000 0.000000
vt 0.000000 0.000000
vt 0.000000 0.000000
vt 0.000000 0.000000
vt 0.000000 0.000000
vt 0.000000 0.000000
vt 0.000000 0.000000
vt 0.000000 0.000000
vt 0.000000 0.000000
vt 0.000000 0.000000
vt 0.000000 0.000000
vt 0.000000 0.000000
vt 0.000000 0.000000
vt 0.000000 0.000000
vn 0.8610 -0.4315 0.2690
vn 0.8493 -0.4905 0.1951
vn 0.8540 -0.4827 0.1939
vn 0.8645 0.3777 0.3315
vn 0.8369 0.5094 0.2000
vn 0.8578 0.3852 0.3402
vn 0.8638 -0.3306 0.3802
vn 0.8529 -0.2026 0.4811
vn 0.8601 -0.3358 0.3839
vn 0.8485 0.0839 0.5224
vn 0.8467 -0.0025 0.5320
vn 0.8458 -0.0019 0.5334
vn 0.8263 0.5528 0.1073
vn 0.8150 0.5775 0.0476
vn 0.8220 0.5591 0.1079
vn 0.8511 -0.5119 0.1167
vn 0.8484 -0.5293 0.0000
vn 0.8501 -0.5266 0.0000
vn 0.8656 0.2263 0.4467
vn 0.8492 0.1413 0.5087
vn 0.8524 0.1416 0.5033
vn 0.8535 -0.1276 0.5051
vn 0.8467 -0.0826 0.5256
vn 0.8474 -0.1271 0.5155
vn 0.8169 0.5748 -0.0481
vn 0.8125 0.5830 0.0000
vn 0.8120 0.5836 0.0000
vn 0.8461 0.4959 -0.1953
vn 0.8220 0.5592 -0.1079
vn 0.8263 0.5529 -0.1073
vn 0.8645 0.3777 -0.3316
vn 0.8553 0.2321 -0.4632
vn 0.8578 0.3851 -0.3402
vn 0.8461 -0.0836 -0.5264
vn 0.8468 -0.0025 -0.5318
vn 0.8458 -0.0019 -0.5334
vn 0.8523 0.1416 -0.5035
vn 0.8479 0.0835 -0.5235
vn 0.8492 0.1414 -0.5087
vn 0.8706 -0.1908 -0.4533
vn 0.8474 -0.1271 -0.5155
vn 0.8536 -0.1275 -0.5051
vn 0.8638 -0.3305 -0.3802
vn 0.8532 -0.4442 -0.2732
vn 0.8601 -0.3358 -0.3840
vn 0.8540 -0.4827 -0.1939
vn 0.8487 -0.5159 -0.1162
vn 0.8493 -0.4905 -0.1951
vn 0.8447 -0.5352 0.0000
vn 0.8444 -0.5211 -0.1235
vn 0.8510 -0.5119 -0.1167
vn 0.8447 -0.4946 -0.2044
vn 0.8530 -0.4375 -0.2845
vn 0.8610 -0.4315 -0.2690
vn 0.8591 -0.3363 -0.3857
vn 0.8538 -0.2152 -0.4740
vn 0.8529 -0.2026 -0.4811
vn 0.8455 -0.1319 -0.5175
vn 0.8436 -0.0027 -0.5369
vn 0.8443 0.0877 -0.5287
vn 0.8486 0.0838 -0.5224
vn 0.8457 0.1473 -0.5129
vn 0.8437 -0.0862 -0.5298
vn 0.8468 -0.0825 -0.5255
vn 0.8543 0.2444 -0.4587
vn 0.8654 0.2264 -0.4469
vn 0.8568 0.3836 -0.3445
vn 0.8370 0.5043 -0.2123
vn 0.8369 0.5094 -0.2000
vn 0.8179 0.5634 -0.1164
vn 0.8101 0.5839 -0.0513
vn 0.8150 0.5775 -0.0476
vn 0.8085 0.5885 0.0000
vn 0.8435 -0.0026 0.5371
vn 0.8437 -0.0862 0.5298
vn 0.8460 -0.0837 0.5265
vn 0.8454 -0.1318 0.5175
vn 0.8542 0.2445 0.4588
vn 0.8568 0.3836 0.3445
vn 0.8553 0.2320 0.4633
vn 0.8458 0.1472 0.5128
vn 0.8444 -0.5212 0.1235
vn 0.8448 -0.4944 0.2044
vn 0.8488 -0.5158 0.1162
vn 0.8101 0.5839 0.0513
vn 0.8169 0.5748 0.0480
vn 0.8180 0.5634 0.1163
vn 0.8442 0.0878 0.5288
vn 0.8478 0.0836 0.5237
vn 0.8537 -0.2153 0.4742
vn 0.8707 -0.1908 0.4533
vn 0.8591 -0.3363 0.3857
vn 0.8370 0.5043 0.2123
vn 0.8461 0.4960 0.1953
vn 0.8531 -0.4374 0.2844
vn 0.8532 -0.4442 0.2732
vn 0.0108 0.2147 -0.9766
vn 0.0103 0.9783 -0.2071
vn 0.0103 0.9783 0.2072
vn 0.0106 0.2150 0.9766
vn 0.0110 -0.1788 0.9838
vn 0.0103 -0.9864 0.1640
vn 0.0107 -0.1793 -0.9837
vn 0.0103 -0.9864 -0.1639
vn 1.0000 0.0000 0.0000
vn 0.0106 0.2150 -0.9766
vn 0.0103 0.9782 0.2072
vn 0.0108 0.2147 0.9766
vn 0.0109 -0.1790 0.9838
vn 0.0110 -0.1788 -0.9838
vn 0.9864 0.1547 0.0544
vn 0.9803 0.1787 0.0833
vn 0.9846 0.1439 0.0990
vn 0.9792 -0.1636 0.1199
vn 0.9974 -0.0211 0.0688
vn 0.9910 -0.0327 0.1297
vn 0.9824 0.1293 0.1345
vn 0.9773 0.1500 0.1494
vn 0.9793 0.1183 0.1640
vn 0.9771 -0.1168 0.1777
vn 0.9867 0.0128 0.1618
vn 0.9812 0.0782 0.1762
vn 0.9821 0.0013 0.1882
vn 0.9973 0.0362 0.0631
vn 0.9893 0.0968 0.1088
vn 0.9926 0.0273 0.1179
vn 0.9815 -0.1599 0.1047
vn 0.9846 -0.1740 0.0130
vn 0.9803 0.1787 -0.0833
vn 0.9864 0.1547 -0.0544
vn 0.9846 0.1439 -0.0990
vn 0.9792 -0.1636 -0.1199
vn 0.9974 -0.0211 -0.0688
vn 0.9616 -0.2741 -0.0098
vn 0.9773 0.1500 -0.1493
vn 0.9824 0.1293 -0.1345
vn 0.9793 0.1183 -0.1639
vn 0.9771 -0.1168 -0.1776
vn 0.9910 -0.0327 -0.1297
vn 0.9812 0.0782 -0.1762
vn 0.9867 0.0128 -0.1618
vn 0.9821 0.0013 -0.1882
vn 0.9893 0.0968 -0.1088
vn 0.9973 0.0362 -0.0631
vn 0.9926 0.0273 -0.1179
vn 0.9815 -0.1599 -0.1047
vn 0.9925 -0.0403 0.1150
vn 0.9163 -0.3257 0.2328
vn 0.9208 -0.3457 0.1805
vn 0.9746 0.1955 0.1087
vn 0.9228 0.2944 0.2484
vn 0.9769 0.1709 0.1283
vn 0.9720 -0.1455 0.1842
vn 0.9089 -0.2685 0.3189
vn 0.9666 -0.1529 0.2058
vn 0.9275 0.0801 0.3651
vn 0.9268 -0.0016 0.3755
vn 0.9731 0.2277 0.0361
vn 0.9098 0.4054 0.0884
vn 0.9745 0.2127 0.0719
vn 0.9038 0.4280 0.0000
vn 0.9314 -0.3461 0.1124
vn 0.9392 -0.3434 0.0000
vn 0.9296 0.1841 0.3193
vn 0.9271 0.1307 0.3511
vn 0.9763 -0.0652 0.2062
vn 0.9218 -0.1190 0.3690
vn 0.9716 -0.1038 0.2123
vn 0.9722 0.2342 0.0000
vn 0.9060 0.4212 -0.0410
vn 0.9039 0.4277 0.0000
vn 0.9745 0.2127 -0.0719
vn 0.9169 0.3703 -0.1490
vn 0.9098 0.4054 -0.0885
vn 0.9228 0.2945 -0.2485
vn 0.9769 0.1708 -0.1283
vn 0.9199 -0.0778 -0.3844
vn 0.9268 -0.0016 -0.3755
vn 0.9270 0.1306 -0.3514
vn 0.9716 -0.1038 -0.2124
vn 0.9312 -0.1574 -0.3288
vn 0.9217 -0.1190 -0.3692
vn 0.9768 -0.1309 -0.1696
vn 0.9090 -0.2684 -0.3187
vn 0.9666 -0.1529 -0.2058
vn 0.9878 0.1556 -0.0013
vn 0.9208 -0.3457 -0.1805
vn 0.9925 -0.0402 -0.1150
vn 0.9314 -0.3461 -0.1125
vn 0.9163 -0.3258 -0.2328
vn 0.9720 -0.1456 -0.1843
vn 0.9275 0.0801 -0.3651
vn 0.9763 -0.0652 -0.2064
vn 0.9295 0.1842 -0.3195
vn 0.9746 0.1956 -0.1087
vn 0.9731 0.2277 -0.0361
vn 0.9199 -0.0778 0.3842
vn 0.9878 0.1557 0.0013
vn 0.9060 0.4212 0.0411
vn 0.9312 -0.1574 0.3287
vn 0.9168 0.3703 0.1491
vn 0.9768 -0.1309 0.1696
vn 0.9846 -0.1740 -0.0130
vn 0.9674 -0.0797 0.2402
vn 0.9946 0.1038 0.0000
vn 0.9872 0.1591 0.0000
vn 0.9930 0.1022 -0.0594
vn 0.9992 0.0388 0.0000
vn 0.9850 0.0869 -0.1488
vn 0.9826 -0.0502 -0.1785
vn 0.9802 0.1599 -0.1165
vn 0.9998 -0.0164 0.0000
vn 0.9192 -0.3936 0.0000
vn 0.9793 0.2025 0.0000
vn 0.9797 0.1952 -0.0444
vn 0.9616 -0.2741 0.0098
vn 0.9674 -0.0797 -0.2403
vn 0.9930 0.1022 0.0594
vn 0.9850 0.0869 0.1488
vn 0.9826 -0.0502 0.1785
vn 0.9802 0.1599 0.1165
vn 0.9797 0.1952 0.0444
vn 0.4742 0.7322 -0.4888
vn 0.6332 0.0219 -0.7737
vn 0.4743 0.7323 0.4887
vn 0.2145 0.9767 0.0000
vn 0.5800 -0.6590 0.4787
vn 0.6333 0.0220 0.7736
vn 0.5799 -0.6591 -0.4788
vn 0.3793 -0.9253 0.0000
vn 0.0000 0.0000 1.0000
vn 0.0000 0.0000 -1.0000
vn 0.2943 -0.2334 0.9268
vn 0.8635 -0.1682 0.4754
vn 0.3686 -0.0596 0.9276
vn 0.2632 -0.7839 0.5622
vn 0.6684 -0.5270 0.5248
vn 0.3853 -0.9030 0.1899
vn 0.8461 -0.5330 0.0000
vn 0.7830 -0.5990 0.1679
vn 0.9822 -0.1879 0.0000
vn 0.9704 -0.2283 0.0787
vn 0.2846 0.2255 0.9317
vn 0.2554 0.7746 0.5786
vn 0.1213 0.3577 0.9259
vn 0.8361 0.1649 0.5231
vn 0.6203 0.4821 0.6186
vn 0.7844 0.5762 0.2293
vn 0.9977 0.0684 0.0000
vn 0.8373 0.5467 0.0000
vn 0.2947 0.9363 0.1908
vn 0.3128 0.9498 0.0000
vn -0.2404 0.2473 0.9387
vn -0.7361 0.2499 0.6290
vn -0.3554 0.1162 0.9274
vn -0.2530 0.7823 0.5691
vn -0.5190 0.5619 0.6441
vn -0.2710 0.9403 0.2058
vn -0.7062 0.7080 0.0000
vn -0.6571 0.7043 0.2685
vn -0.9600 0.2799 0.0000
vn -0.9144 0.3017 0.2700
vn -0.2767 -0.2707 0.9220
vn -0.2045 -0.7979 0.5669
vn -0.0833 -0.3567 0.9304
vn -0.7568 -0.1947 0.6239
vn -0.5549 -0.5772 0.5991
vn -0.6658 -0.7118 0.2235
vn -0.9601 -0.2797 0.0000
vn -0.7061 -0.7081 0.0000
vn -0.2619 -0.9458 0.1920
vn -0.2786 -0.9604 0.0000
vn 0.8773 0.0000 0.4800
vn 0.3622 0.0000 0.9321
vn 0.9994 -0.0339 0.0000
vn 0.9962 -0.0225 0.0835
vn 0.9757 0.1438 0.1650
vn 0.3697 0.0677 0.9267
vn -0.0000 0.8415 0.5401
vn 0.0000 0.3719 0.9283
vn 0.0000 0.9843 0.1766
vn -0.2786 0.9604 0.0000
vn -0.1105 0.3575 0.9273
vn -0.7950 0.0000 0.6066
vn -0.3741 0.0000 0.9274
vn -1.0000 0.0000 0.0000
vn -0.9682 0.0000 0.2503
vn -0.9267 -0.2820 0.2482
vn -0.3536 -0.0830 0.9317
vn -0.0000 -0.8381 0.5454
vn 0.0000 -0.3681 0.9297
vn 0.0000 -0.9839 0.1785
vn 0.4063 -0.9137 0.0000
vn 0.1090 -0.3584 0.9272
vn 0.8635 -0.1682 -0.4754
vn 0.2943 -0.2334 -0.9268
vn 0.3686 -0.0596 -0.9276
vn 0.2632 -0.7839 -0.5622
vn 0.1090 -0.3584 -0.9272
vn 0.3853 -0.9030 -0.1899
vn 0.7830 -0.5990 -0.1679
vn 0.9704 -0.2283 -0.0787
vn 0.2554 0.7746 -0.5786
vn 0.2846 0.2255 -0.9317
vn 0.1213 0.3577 -0.9259
vn 0.8361 0.1649 -0.5231
vn 0.3697 0.0677 -0.9267
vn 0.7844 0.5762 -0.2293
vn 0.9757 0.1438 -0.1650
vn 0.2947 0.9363 -0.1908
vn -0.7361 0.2499 -0.6290
vn -0.2404 0.2473 -0.9387
vn -0.3554 0.1162 -0.9274
vn -0.2530 0.7823 -0.5691
vn -0.1105 0.3575 -0.9273
vn -0.2710 0.9403 -0.2058
vn -0.6571 0.7043 -0.2685
vn -0.9144 0.3017 -0.2700
vn -0.2045 -0.7979 -0.5669
vn -0.2767 -0.2707 -0.9220
vn -0.0833 -0.3567 -0.9304
vn -0.7568 -0.1947 -0.6239
vn -0.3536 -0.0830 -0.9317
vn -0.6658 -0.7118 -0.2235
vn -0.9267 -0.2820 -0.2482
vn -0.2619 -0.9458 -0.1920
vn 0.8773 0.0000 -0.4800
vn 0.9962 -0.0225 -0.0835
vn 0.3622 0.0000 -0.9321
vn -0.0000 0.8415 -0.5401
vn 0.0000 0.9843 -0.1766
vn 0.0000 1.0000 0.0000
vn 0.0000 0.3719 -0.9283
vn -0.7950 0.0000 -0.6066
vn -0.9682 0.0000 -0.2503
vn -0.3741 0.0000 -0.9274
vn -0.0000 -0.8381 -0.5454
vn 0.0000 -0.9839 -0.1785
vn 0.0000 -1.0000 0.0000
vn 0.0000 -0.3681 -0.9297
vn 0.6203 0.4821 -0.6186
vn -0.5190 0.5619 -0.6441
vn -0.5549 -0.5772 -0.5991
vn 0.6684 -0.5270 -0.5248
usemtl ScreenOp_matSG.001
s 1
f 106/1/1 108/2/2 105/3/3
f 109/4/4 111/5/5 112/6/6
f 113/7/7 115/8/8 116/9/9
f 118/10/10 120/11/11 117/12/12
f 121/13/13 123/14/14 124/15/15
f 126/16/16 128/17/17 125/18/18
f 130/19/19 132/20/20 129/21/21
f 133/22/22 135/23/23 136/24/24
f 138/25/25 140/26/26 137/27/27
f 142/28/28 144/29/29 141/30/30
f 145/31/31 147/32/32 148/33/33
f 150/34/34 152/35/35 149/36/36
f 153/37/37 155/38/38 156/39/39
f 158/40/40 160/41/41 157/42/42
f 161/43/43 163/44/44 164/45/45
f 165/46/46 167/47/47 168/48/48
f 167/47/47 170/49/49 169/50/50
f 128/51/17 166/52/51 125/53/18
f 168/48/48 169/50/50 171/54/52
f 163/44/44 171/55/52 172/56/53
f 168/57/48 162/58/54 165/59/46
f 164/45/45 172/56/53 173/60/55
f 174/61/56 164/62/45 173/63/55
f 159/64/57 161/65/43 164/62/45
f 159/64/57 175/66/58 160/41/41
f 155/38/38 177/67/59 176/68/60
f 152/69/35 154/70/61 149/71/36
f 156/39/39 176/68/60 178/72/62
f 179/73/63 160/74/41 175/75/58
f 151/76/64 157/77/42 160/74/41
f 151/76/64 177/78/59 152/35/35
f 147/32/32 178/79/62 180/80/65
f 156/81/39 146/82/66 153/83/37
f 148/33/33 180/80/65 181/84/67
f 182/85/68 148/86/33 181/87/67
f 143/88/69 145/89/31 148/86/33
f 143/88/69 183/90/70 144/29/29
f 184/91/71 144/92/29 183/93/70
f 139/94/72 141/95/30 144/92/29
f 139/94/72 185/96/73 140/26/26
f 135/23/23 187/97/74 186/98/75
f 120/99/11 134/100/76 117/101/12
f 136/24/24 186/98/75 188/102/77
f 189/103/78 112/104/6 190/105/79
f 131/106/80 109/107/4 112/104/6
f 131/106/80 191/108/81 132/20/20
f 192/109/82 108/110/2 193/111/83
f 127/112/84 105/113/3 108/110/2
f 127/112/84 170/114/49 128/17/17
f 123/14/14 185/115/73 194/116/85
f 140/117/26 122/118/86 137/119/27
f 124/15/15 194/116/85 195/120/87
f 196/121/88 132/122/20 191/123/81
f 119/124/89 129/125/21 132/122/20
f 119/124/89 187/126/74 120/11/11
f 115/8/8 188/127/77 197/128/90
f 136/129/24 114/130/91 133/131/22
f 116/9/9 197/128/90 198/132/92
f 111/5/5 195/133/87 199/134/93
f 124/135/15 110/136/94 121/137/13
f 112/6/6 199/134/93 190/138/79
f 200/139/95 116/140/9 198/141/92
f 107/142/96 113/143/7 116/140/9
f 107/142/96 193/144/83 108/2/2
f 106/1/1 107/142/96 108/2/2
f 109/4/4 110/136/94 111/5/5
f 113/7/7 114/130/91 115/8/8
f 118/10/10 119/124/89 120/11/11
f 121/13/13 122/118/86 123/14/14
f 126/16/16 127/112/84 128/17/17
f 130/19/19 131/106/80 132/20/20
f 133/22/22 134/100/76 135/23/23
f 138/25/25 139/94/72 140/26/26
f 142/28/28 143/88/69 144/29/29
f 145/31/31 146/82/66 147/32/32
f 150/34/34 151/76/64 152/35/35
f 153/37/37 154/70/61 155/38/38
f 158/40/40 159/64/57 160/41/41
f 161/43/43 162/58/54 163/44/44
f 165/46/46 166/52/51 167/47/47
f 167/47/47 128/51/17 170/49/49
f 128/51/17 167/47/47 166/52/51
f 168/48/48 167/47/47 169/50/50
f 163/44/44 168/57/48 171/55/52
f 168/57/48 163/44/44 162/58/54
f 164/45/45 163/44/44 172/56/53
f 174/61/56 159/64/57 164/62/45
f 159/64/57 158/40/40 161/65/43
f 159/64/57 174/61/56 175/66/58
f 155/38/38 152/69/35 177/67/59
f 152/69/35 155/38/38 154/70/61
f 156/39/39 155/38/38 176/68/60
f 179/73/63 151/76/64 160/74/41
f 151/76/64 150/34/34 157/77/42
f 151/76/64 179/73/63 177/78/59
f 147/32/32 156/81/39 178/79/62
f 156/81/39 147/32/32 146/82/66
f 148/33/33 147/32/32 180/80/65
f 182/85/68 143/88/69 148/86/33
f 143/88/69 142/28/28 145/89/31
f 143/88/69 182/85/68 183/90/70
f 184/91/71 139/94/72 144/92/29
f 139/94/72 138/25/25 141/95/30
f 139/94/72 184/91/71 185/96/73
f 135/23/23 120/99/11 187/97/74
f 120/99/11 135/23/23 134/100/76
f 136/24/24 135/23/23 186/98/75
f 189/103/78 131/106/80 112/104/6
f 131/106/80 130/19/19 109/107/4
f 131/106/80 189/103/78 191/108/81
f 192/109/82 127/112/84 108/110/2
f 127/112/84 126/16/16 105/113/3
f 127/112/84 192/109/82 170/114/49
f 123/14/14 140/117/26 185/115/73
f 140/117/26 123/14/14 122/118/86
f 124/15/15 123/14/14 194/116/85
f 196/121/88 119/124/89 132/122/20
f 119/124/89 118/10/10 129/125/21
f 119/124/89 196/121/88 187/126/74
f 115/8/8 136/129/24 188/127/77
f 136/129/24 115/8/8 114/130/91
f 116/9/9 115/8/8 197/128/90
f 111/5/5 124/135/15 195/133/87
f 124/135/15 111/5/5 110/136/94
f 112/6/6 111/5/5 199/134/93
f 200/139/95 107/142/96 116/140/9
f 107/142/96 106/1/1 113/143/7
f 107/142/96 200/139/95 193/144/83
usemtl anisotropic1SG.001
s off
f 210/145/97 217/146/97 218/147/97
f 211/148/98 217/149/98 209/150/98
f 211/151/99 220/152/99 219/153/99
f 213/154/100 220/155/100 212/156/100
f 213/157/101 222/158/101 221/159/101
f 215/160/102 222/161/102 214/162/102
f 210/163/103 224/164/103 216/165/103
f 215/166/104 224/167/104 223/168/104
f 225/169/105 217/170/105 219/171/105
f 225/169/105 220/172/105 221/173/105
f 225/169/105 222/174/105 223/175/105
f 225/169/105 224/176/105 218/177/105
f 210/145/106 209/178/106 217/146/106
f 211/148/98 219/179/98 217/149/98
f 211/151/107 212/180/107 220/152/107
f 213/154/108 221/181/108 220/155/108
f 213/157/109 214/182/109 222/158/109
f 215/160/102 223/183/102 222/161/102
f 210/163/110 218/184/110 224/164/110
f 215/166/104 216/185/104 224/167/104
f 225/169/105 218/186/105 217/170/105
f 225/169/105 219/187/105 220/172/105
f 225/169/105 221/188/105 222/174/105
f 225/169/105 223/189/105 224/176/105
s 1
f 2/190/111 4/191/112 1/192/113
f 5/193/114 7/194/115 8/195/116
f 10/196/117 12/197/118 9/198/119
f 8/195/116 14/199/120 5/193/114
f 16/200/121 18/201/122 15/202/123
f 20/203/124 22/204/125 19/205/126
f 5/193/114 23/206/127 24/207/128
f 26/208/129 28/209/130 25/210/131
f 29/211/132 31/212/133 32/213/134
f 34/214/135 36/215/136 33/216/137
f 37/217/138 30/218/139 29/211/132
f 40/219/140 42/220/141 39/221/142
f 44/222/143 46/223/144 43/224/145
f 29/211/132 48/225/146 37/217/138
f 49/226/147 51/227/148 52/228/149
f 54/229/150 56/230/151 53/231/152
f 58/232/153 60/233/154 57/234/155
f 15/235/123 61/236/156 62/237/157
f 64/238/158 66/239/159 63/240/160
f 67/241/161 69/242/162 70/243/163
f 9/244/119 71/245/164 72/246/165
f 74/247/166 76/248/167 73/249/168
f 77/250/169 79/251/170 80/252/171
f 81/253/172 83/254/173 84/255/174
f 34/256/135 87/257/175 85/258/176
f 39/259/142 89/260/177 90/261/178
f 40/262/140 92/263/179 33/264/137
f 93/265/180 95/266/181 96/267/182
f 98/268/183 100/269/184 97/270/185
f 102/271/186 104/272/187 101/273/188
f 103/274/189 125/275/18 166/276/51
f 103/274/189 67/277/161 70/278/163
f 104/272/187 166/276/51 165/279/46
f 99/280/190 165/281/46 162/282/54
f 99/280/190 101/283/188 104/284/187
f 100/269/184 162/282/54 161/285/43
f 158/286/40 100/287/184 161/288/43
f 100/287/184 94/289/191 97/290/185
f 95/266/181 157/291/42 96/267/182
f 91/292/192 149/293/36 154/294/61
f 91/292/192 39/295/142 90/296/178
f 92/263/179 154/294/61 153/297/37
f 150/298/34 96/299/182 157/300/42
f 96/299/182 88/301/193 93/302/180
f 89/260/177 149/303/36 90/261/178
f 86/304/194 153/305/37 146/306/66
f 86/304/194 33/307/137 92/308/179
f 87/257/175 146/306/66 145/309/31
f 142/310/28 87/311/175 145/312/31
f 87/311/175 82/313/195 85/314/176
f 83/254/173 141/315/30 84/255/174
f 138/316/25 84/317/174 141/318/30
f 84/317/174 78/319/196 81/320/172
f 79/251/170 137/321/27 80/252/171
f 75/322/197 117/323/12 134/324/76
f 75/322/197 15/325/123 62/326/157
f 76/248/167 134/324/76 133/327/22
f 130/328/19 56/329/151 109/330/4
f 56/329/151 12/331/118 53/332/152
f 71/245/164 129/333/21 72/246/165
f 126/334/16 52/335/149 105/336/3
f 52/335/149 68/337/198 49/338/147
f 69/242/162 125/339/18 70/243/163
f 65/340/199 137/341/27 122/342/86
f 65/340/199 77/343/169 80/344/171
f 66/239/159 122/342/86 121/345/13
f 118/346/10 72/347/165 129/348/21
f 72/347/165 18/349/122 9/350/119
f 61/236/156 117/351/12 62/237/157
f 59/352/200 133/353/22 114/354/91
f 59/352/200 73/355/168 76/356/167
f 60/233/154 114/354/91 113/357/7
f 55/358/201 121/359/13 110/360/94
f 55/358/201 63/361/160 66/362/159
f 56/230/151 110/360/94 109/363/4
f 106/364/1 60/365/154 113/366/7
f 60/365/154 50/367/202 57/368/155
f 51/227/148 105/369/3 52/228/149
f 32/213/134 47/370/203 29/211/132
f 201/371/204 101/372/188 47/370/203
f 48/225/146 97/373/185 94/374/191
f 98/375/183 47/370/203 101/372/188
f 37/217/138 94/374/191 93/376/180
f 202/377/205 28/209/130 203/378/206
f 45/379/207 25/210/131 28/209/130
f 45/379/207 204/380/208 46/223/144
f 44/222/143 36/215/136 25/210/131
f 41/381/209 33/216/137 36/215/136
f 41/381/209 43/224/145 42/220/141
f 42/220/141 88/382/193 39/221/142
f 38/383/210 93/376/180 88/382/193
f 38/383/210 43/224/145 30/218/139
f 26/208/129 82/384/195 81/385/172
f 35/386/211 85/387/176 82/384/195
f 35/386/211 25/210/131 36/215/136
f 31/212/133 204/380/208 205/388/212
f 46/223/144 30/218/139 43/224/145
f 32/213/134 205/388/212 206/389/213
f 207/390/214 78/391/196 77/392/169
f 27/393/215 81/385/172 78/391/196
f 27/393/215 203/378/206 28/209/130
f 24/207/128 6/394/216 5/193/114
f 208/395/217 49/396/147 68/397/198
f 23/206/127 57/398/155 50/399/202
f 58/400/153 14/199/120 73/401/168
f 24/207/128 50/399/202 49/396/147
f 2/190/111 202/377/205 203/378/206
f 21/402/218 204/380/208 202/377/205
f 21/402/218 1/192/113 22/204/125
f 10/196/117 22/204/125 1/192/113
f 17/403/219 19/205/126 22/204/125
f 17/403/219 9/198/119 18/201/122
f 74/404/166 16/200/121 15/202/123
f 13/405/220 19/205/126 16/200/121
f 13/405/220 73/401/168 14/199/120
f 54/406/150 4/191/112 63/407/160
f 11/408/221 1/192/113 4/191/112
f 11/408/221 53/409/152 12/197/118
f 7/194/115 204/380/208 20/203/124
f 205/388/212 6/394/216 206/389/213
f 8/195/116 20/203/124 19/205/126
f 64/410/158 207/390/214 77/392/169
f 3/411/222 203/378/206 207/390/214
f 3/411/222 63/407/160 4/191/112
f 208/395/217 209/412/223 210/413/224
f 67/414/161 209/412/223 68/397/198
f 67/414/161 212/415/225 211/416/226
f 201/371/204 212/415/225 102/417/186
f 201/371/204 214/418/227 213/419/228
f 206/389/213 214/418/227 32/213/134
f 208/395/217 216/420/229 6/394/216
f 206/389/213 216/420/229 215/421/230
f 2/190/111 3/411/222 4/191/112
f 5/193/114 6/394/216 7/194/115
f 10/196/117 11/408/221 12/197/118
f 8/195/116 13/405/220 14/199/120
f 16/200/121 17/403/219 18/201/122
f 20/203/124 21/402/218 22/204/125
f 5/193/114 14/199/120 23/206/127
f 26/208/129 27/393/215 28/209/130
f 29/211/132 30/218/139 31/212/133
f 34/214/135 35/386/211 36/215/136
f 37/217/138 38/383/210 30/218/139
f 40/219/140 41/381/209 42/220/141
f 44/222/143 45/379/207 46/223/144
f 29/211/132 47/370/203 48/225/146
f 49/226/147 50/367/202 51/227/148
f 54/229/150 55/358/201 56/230/151
f 58/232/153 59/352/200 60/233/154
f 15/235/123 18/349/122 61/236/156
f 64/238/158 65/340/199 66/239/159
f 67/241/161 68/337/198 69/242/162
f 9/244/119 12/331/118 71/245/164
f 74/247/166 75/322/197 76/248/167
f 77/250/169 78/319/196 79/251/170
f 81/253/172 82/313/195 83/254/173
f 34/256/135 86/304/194 87/257/175
f 39/259/142 88/301/193 89/260/177
f 40/262/140 91/292/192 92/263/179
f 93/265/180 94/289/191 95/266/181
f 98/268/183 99/280/190 100/269/184
f 102/271/186 103/274/189 104/272/187
f 103/274/189 70/278/163 125/275/18
f 103/274/189 102/271/186 67/277/161
f 104/272/187 103/274/189 166/276/51
f 99/280/190 104/284/187 165/281/46
f 99/280/190 98/268/183 101/283/188
f 100/269/184 99/280/190 162/282/54
f 158/286/40 95/266/181 100/287/184
f 100/287/184 95/266/181 94/289/191
f 95/266/181 158/286/40 157/291/42
f 91/292/192 90/296/178 149/293/36
f 91/292/192 40/262/140 39/295/142
f 92/263/179 91/292/192 154/294/61
f 150/298/34 89/260/177 96/299/182
f 96/299/182 89/260/177 88/301/193
f 89/260/177 150/298/34 149/303/36
f 86/304/194 92/308/179 153/305/37
f 86/304/194 34/256/135 33/307/137
f 87/257/175 86/304/194 146/306/66
f 142/310/28 83/254/173 87/311/175
f 87/311/175 83/254/173 82/313/195
f 83/254/173 142/310/28 141/315/30
f 138/316/25 79/251/170 84/317/174
f 84/317/174 79/251/170 78/319/196
f 79/251/170 138/316/25 137/321/27
f 75/322/197 62/326/157 117/323/12
f 75/322/197 74/247/166 15/325/123
f 76/248/167 75/322/197 134/324/76
f 130/328/19 71/245/164 56/329/151
f 56/329/151 71/245/164 12/331/118
f 71/245/164 130/328/19 129/333/21
f 126/334/16 69/242/162 52/335/149
f 52/335/149 69/242/162 68/337/198
f 69/242/162 126/334/16 125/339/18
f 65/340/199 80/344/171 137/341/27
f 65/340/199 64/238/158 77/343/169
f 66/239/159 65/340/199 122/342/86
f 118/346/10 61/236/156 72/347/165
f 72/347/165 61/236/156 18/349/122
f 61/236/156 118/346/10 117/351/12
f 59/352/200 76/356/167 133/353/22
f 59/352/200 58/232/153 73/355/168
f 60/233/154 59/352/200 114/354/91
f 55/358/201 66/362/159 121/359/13
f 55/358/201 54/229/150 63/361/160
f 56/230/151 55/358/201 110/360/94
f 106/364/1 51/227/148 60/365/154
f 60/365/154 51/227/148 50/367/202
f 51/227/148 106/364/1 105/369/3
f 32/213/134 201/371/204 47/370/203
f 201/371/204 102/417/186 101/372/188
f 48/225/146 98/375/183 97/373/185
f 98/375/183 48/225/146 47/370/203
f 37/217/138 48/225/146 94/374/191
f 202/377/205 45/379/207 28/209/130
f 45/379/207 44/222/143 25/210/131
f 45/379/207 202/377/205 204/380/208
f 44/222/143 41/381/209 36/215/136
f 41/381/209 40/219/140 33/216/137
f 41/381/209 44/222/143 43/224/145
f 42/220/141 38/383/210 88/382/193
f 38/383/210 37/217/138 93/376/180
f 38/383/210 42/220/141 43/224/145
f 26/208/129 35/386/211 82/384/195
f 35/386/211 34/214/135 85/387/176
f 35/386/211 26/208/129 25/210/131
f 31/212/133 46/223/144 204/380/208
f 46/223/144 31/212/133 30/218/139
f 32/213/134 31/212/133 205/388/212
f 207/390/214 27/393/215 78/391/196
f 27/393/215 26/208/129 81/385/172
f 27/393/215 207/390/214 203/378/206
f 24/207/128 208/395/217 6/394/216
f 208/395/217 24/207/128 49/396/147
f 23/206/127 58/400/153 57/398/155
f 58/400/153 23/206/127 14/199/120
f 24/207/128 23/206/127 50/399/202
f 2/190/111 21/402/218 202/377/205
f 21/402/218 20/203/124 204/380/208
f 21/402/218 2/190/111 1/192/113
f 10/196/117 17/403/219 22/204/125
f 17/403/219 16/200/121 19/205/126
f 17/403/219 10/196/117 9/198/119
f 74/404/166 13/405/220 16/200/121
f 13/405/220 8/195/116 19/205/126
f 13/405/220 74/404/166 73/401/168
f 54/406/150 11/408/221 4/191/112
f 11/408/221 10/196/117 1/192/113
f 11/408/221 54/406/150 53/409/152
f 7/194/115 205/388/212 204/380/208
f 205/388/212 7/194/115 6/394/216
f 8/195/116 7/194/115 20/203/124
f 64/410/158 3/411/222 207/390/214
f 3/411/222 2/190/111 203/378/206
f 3/411/222 64/410/158 63/407/160
f 208/395/217 68/397/198 209/412/223
f 67/414/161 211/416/226 209/412/223
f 67/414/161 102/417/186 212/415/225
f 201/371/204 213/419/228 212/415/225
f 201/371/204 32/213/134 214/418/227
f 206/389/213 215/421/230 214/418/227
f 208/395/217 210/413/224 216/420/229
f 206/389/213 6/394/216 216/420/229
usemtl blinn2SG_004
s off
f 227/422/231 229/423/231 226/424/231
f 231/425/231 227/422/231 230/426/231
f 233/427/231 231/425/231 232/428/231
f 235/429/231 233/427/231 234/430/231
f 237/431/231 235/429/231 236/432/231
f 239/433/231 237/431/231 238/434/231
f 241/435/231 239/433/231 240/436/231
f 229/423/231 241/435/231 242/437/231
f 308/438/232 310/439/232 307/440/232
f 310/439/232 312/441/232 311/442/232
f 312/441/232 314/443/232 313/444/232
f 314/443/232 316/445/232 315/446/232
f 316/445/232 318/447/232 317/448/232
f 318/447/232 320/449/232 319/450/232
f 320/449/232 322/451/232 321/452/232
f 322/451/232 308/438/232 323/453/232
f 227/422/231 228/454/231 229/423/231
f 231/425/231 228/454/231 227/422/231
f 233/427/231 228/454/231 231/425/231
f 235/429/231 228/454/231 233/427/231
f 237/431/231 228/454/231 235/429/231
f 239/433/231 228/454/231 237/431/231
f 241/435/231 228/454/231 239/433/231
f 229/423/231 228/454/231 241/435/231
f 308/438/232 309/455/232 310/439/232
f 310/439/232 309/455/232 312/441/232
f 312/441/232 309/455/232 314/443/232
f 314/443/232 309/455/232 316/445/232
f 316/445/232 309/455/232 318/447/232
f 318/447/232 309/455/232 320/449/232
f 320/449/232 309/455/232 322/451/232
f 322/451/232 309/455/232 308/438/232
s 1
f 244/456/233 246/457/234 243/458/235
f 244/456/233 248/459/236 245/460/237
f 250/461/238 252/462/239 249/463/240
f 249/463/240 254/464/241 253/465/242
f 256/466/243 258/467/244 255/468/245
f 256/466/243 260/469/246 257/470/247
f 261/471/248 263/472/249 264/473/250
f 265/474/251 264/473/250 266/475/252
f 268/476/253 270/477/254 267/478/255
f 268/476/253 272/479/256 269/480/257
f 274/481/258 276/482/259 273/483/260
f 273/483/260 278/484/261 277/485/262
f 280/486/263 282/487/264 279/488/265
f 280/486/263 284/489/266 281/490/267
f 285/491/268 287/492/269 288/493/270
f 289/494/271 288/493/270 290/495/272
f 243/458/235 291/496/273 292/497/274
f 253/465/242 293/498/275 294/499/276
f 293/498/275 262/500/277 294/499/276
f 291/496/273 259/501/278 292/497/274
f 255/468/245 295/502/279 296/503/280
f 266/475/252 298/504/281 265/474/251
f 298/504/281 275/505/282 274/481/258
f 295/502/279 271/506/283 296/503/280
f 267/478/255 299/507/284 300/508/285
f 277/485/262 301/509/286 302/510/287
f 301/509/286 286/511/288 302/510/287
f 299/507/284 283/512/289 300/508/285
f 279/488/265 303/513/290 304/514/291
f 290/495/272 306/515/292 289/494/271
f 306/515/292 251/516/293 250/461/238
f 303/513/290 247/517/294 304/514/291
f 258/467/244 261/471/248 265/474/251
f 258/467/244 298/504/281 295/502/279
f 272/479/256 298/504/281 274/481/258
f 269/480/257 274/481/258 273/483/260
f 269/480/257 277/485/262 270/477/254
f 270/477/254 302/510/287 299/507/284
f 284/489/266 302/510/287 286/511/288
f 281/490/267 286/511/288 285/491/268
f 281/490/267 289/494/271 282/487/264
f 282/487/264 306/515/292 303/513/290
f 248/459/236 306/515/292 250/461/238
f 248/459/236 249/463/240 245/460/237
f 245/460/237 253/465/242 246/457/234
f 246/457/234 294/499/276 291/496/273
f 260/469/246 294/499/276 262/500/277
f 257/470/247 262/500/277 261/471/248
f 283/512/289 227/422/231 226/424/231
f 300/508/285 226/424/231 229/423/231
f 304/514/291 230/426/231 279/488/265
f 279/488/265 227/422/231 280/486/263
f 247/517/294 233/427/231 232/428/231
f 304/514/291 232/428/231 231/425/231
f 292/497/274 234/430/231 243/458/235
f 243/458/235 233/427/231 244/456/233
f 259/501/278 237/431/231 236/432/231
f 292/497/274 236/432/231 235/429/231
f 296/503/280 238/434/231 255/468/245
f 255/468/245 237/431/231 256/466/243
f 271/506/283 241/435/231 240/436/231
f 296/503/280 240/436/231 239/433/231
f 300/508/285 242/437/231 267/478/255
f 267/478/255 241/435/231 268/476/253
f 325/518/295 327/519/296 324/520/297
f 327/519/296 328/521/298 329/522/299
f 252/462/239 331/523/300 330/524/301
f 254/464/241 330/524/301 332/525/302
f 334/526/303 336/527/304 333/528/305
f 336/527/304 337/529/306 338/530/307
f 339/531/308 263/472/249 340/532/309
f 341/533/310 264/473/250 339/531/308
f 343/534/311 345/535/312 342/536/313
f 345/535/312 346/537/314 347/538/315
f 276/482/259 349/539/316 348/540/317
f 278/484/261 348/540/317 350/541/318
f 352/542/319 354/543/320 351/544/321
f 354/543/320 355/545/322 356/546/323
f 357/547/324 287/492/269 358/548/325
f 359/549/326 288/493/270 357/547/324
f 324/520/297 361/550/327 325/518/295
f 332/525/302 293/498/275 254/464/241
f 340/532/309 293/498/275 362/551/328
f 338/530/307 361/550/327 360/552/329
f 333/528/305 364/553/330 334/526/303
f 365/554/331 266/475/252 341/533/310
f 365/554/331 275/505/282 297/555/332
f 347/538/315 364/553/330 363/556/333
f 342/536/313 367/557/334 343/534/311
f 350/541/318 301/509/286 278/484/261
f 358/548/325 301/509/286 368/558/335
f 356/546/323 367/557/334 366/559/336
f 351/544/321 370/560/337 352/542/319
f 371/561/338 290/495/272 359/549/326
f 371/561/338 251/516/293 305/562/339
f 329/522/299 370/560/337 369/563/340
f 334/526/303 339/531/308 335/564/341
f 365/554/331 334/526/303 364/553/330
f 346/537/314 365/554/331 364/553/330
f 344/565/342 349/539/316 346/537/314
f 350/541/318 344/565/342 343/534/311
f 368/558/335 343/534/311 367/557/334
f 355/545/322 368/558/335 367/557/334
f 353/566/343 358/548/325 355/545/322
f 359/549/326 353/566/343 352/542/319
f 371/561/338 352/542/319 370/560/337
f 328/521/298 371/561/338 370/560/337
f 330/524/301 328/521/298 326/567/344
f 332/525/302 326/567/344 325/518/295
f 362/551/328 325/518/295 361/550/327
f 337/529/306 362/551/328 361/550/327
f 335/564/341 340/532/309 337/529/306
f 356/546/323 310/439/232 354/543/320
f 366/559/336 307/440/232 356/546/323
f 311/442/232 369/563/340 351/544/321
f 310/439/232 351/544/321 354/543/320
f 329/522/299 314/443/232 327/519/296
f 369/563/340 313/444/232 329/522/299
f 315/446/232 360/552/329 324/520/297
f 314/443/232 324/520/297 327/519/296
f 338/530/307 318/447/232 336/527/304
f 360/552/329 317/448/232 338/530/307
f 319/450/232 363/556/333 333/528/305
f 318/447/232 333/528/305 336/527/304
f 347/538/315 322/451/232 345/535/312
f 363/556/333 321/452/232 347/538/315
f 323/453/232 366/559/336 342/536/313
f 322/451/232 342/536/313 345/535/312
f 244/456/233 245/460/237 246/457/234
f 244/456/233 247/517/294 248/459/236
f 250/461/238 251/516/293 252/462/239
f 249/463/240 252/462/239 254/464/241
f 256/466/243 257/470/247 258/467/244
f 256/466/243 259/501/278 260/469/246
f 261/471/248 262/500/277 263/472/249
f 265/474/251 261/471/248 264/473/250
f 268/476/253 269/480/257 270/477/254
f 268/476/253 271/506/283 272/479/256
f 274/481/258 275/505/282 276/482/259
f 273/483/260 276/482/259 278/484/261
f 280/486/263 281/490/267 282/487/264
f 280/486/263 283/512/289 284/489/266
f 285/491/268 286/511/288 287/492/269
f 289/494/271 285/491/268 288/493/270
f 243/458/235 246/457/234 291/496/273
f 253/465/242 254/464/241 293/498/275
f 293/498/275 263/472/249 262/500/277
f 291/496/273 260/469/246 259/501/278
f 255/468/245 258/467/244 295/502/279
f 266/475/252 297/555/332 298/504/281
f 298/504/281 297/555/332 275/505/282
f 295/502/279 272/479/256 271/506/283
f 267/478/255 270/477/254 299/507/284
f 277/485/262 278/484/261 301/509/286
f 301/509/286 287/492/269 286/511/288
f 299/507/284 284/489/266 283/512/289
f 279/488/265 282/487/264 303/513/290
f 290/495/272 305/562/339 306/515/292
f 306/515/292 305/562/339 251/516/293
f 303/513/290 248/459/236 247/517/294
f 258/467/244 257/470/247 261/471/248
f 258/467/244 265/474/251 298/504/281
f 272/479/256 295/502/279 298/504/281
f 269/480/257 272/479/256 274/481/258
f 269/480/257 273/483/260 277/485/262
f 270/477/254 277/485/262 302/510/287
f 284/489/266 299/507/284 302/510/287
f 281/490/267 284/489/266 286/511/288
f 281/490/267 285/491/268 289/494/271
f 282/487/264 289/494/271 306/515/292
f 248/459/236 303/513/290 306/515/292
f 248/459/236 250/461/238 249/463/240
f 245/460/237 249/463/240 253/465/242
f 246/457/234 253/465/242 294/499/276
f 260/469/246 291/496/273 294/499/276
f 257/470/247 260/469/246 262/500/277
f 283/512/289 280/486/263 227/422/231
f 300/508/285 283/512/289 226/424/231
f 304/514/291 231/425/231 230/426/231
f 279/488/265 230/426/231 227/422/231
f 247/517/294 244/456/233 233/427/231
f 304/514/291 247/517/294 232/428/231
f 292/497/274 235/429/231 234/430/231
f 243/458/235 234/430/231 233/427/231
f 259/501/278 256/466/243 237/431/231
f 292/497/274 259/501/278 236/432/231
f 296/503/280 239/433/231 238/434/231
f 255/468/245 238/434/231 237/431/231
f 271/506/283 268/476/253 241/435/231
f 296/503/280 271/506/283 240/436/231
f 300/508/285 229/423/231 242/437/231
f 267/478/255 242/437/231 241/435/231
f 325/518/295 326/567/344 327/519/296
f 327/519/296 326/567/344 328/521/298
f 252/462/239 251/516/293 331/523/300
f 254/464/241 252/462/239 330/524/301
f 334/526/303 335/564/341 336/527/304
f 336/527/304 335/564/341 337/529/306
f 339/531/308 264/473/250 263/472/249
f 341/533/310 266/475/252 264/473/250
f 343/534/311 344/565/342 345/535/312
f 345/535/312 344/565/342 346/537/314
f 276/482/259 275/505/282 349/539/316
f 278/484/261 276/482/259 348/540/317
f 352/542/319 353/566/343 354/543/320
f 354/543/320 353/566/343 355/545/322
f 357/547/324 288/493/270 287/492/269
f 359/549/326 290/495/272 288/493/270
f 324/520/297 360/552/329 361/550/327
f 332/525/302 362/551/328 293/498/275
f 340/532/309 263/472/249 293/498/275
f 338/530/307 337/529/306 361/550/327
f 333/528/305 363/556/333 364/553/330
f 365/554/331 297/555/332 266/475/252
f 365/554/331 349/539/316 275/505/282
f 347/538/315 346/537/314 364/553/330
f 342/536/313 366/559/336 367/557/334
f 350/541/318 368/558/335 301/509/286
f 358/548/325 287/492/269 301/509/286
f 356/546/323 355/545/322 367/557/334
f 351/544/321 369/563/340 370/560/337
f 371/561/338 305/562/339 290/495/272
f 371/561/338 331/523/300 251/516/293
f 329/522/299 328/521/298 370/560/337
f 334/526/303 341/533/310 339/531/308
f 365/554/331 341/533/310 334/526/303
f 346/537/314 349/539/316 365/554/331
f 344/565/342 348/540/317 349/539/316
f 350/541/318 348/540/317 344/565/342
f 368/558/335 350/541/318 343/534/311
f 355/545/322 358/548/325 368/558/335
f 353/566/343 357/547/324 358/548/325
f 359/549/326 357/547/324 353/566/343
f 371/561/338 359/549/326 352/542/319
f 328/521/298 331/523/300 371/561/338
f 330/524/301 331/523/300 328/521/298
f 332/525/302 330/524/301 326/567/344
f 362/551/328 332/525/302 325/518/295
f 337/529/306 340/532/309 362/551/328
f 335/564/341 339/531/308 340/532/309
f 356/546/323 307/440/232 310/439/232
f 366/559/336 308/438/232 307/440/232
f 311/442/232 312/441/232 369/563/340
f 310/439/232 311/442/232 351/544/321
f 329/522/299 313/444/232 314/443/232
f 369/563/340 312/441/232 313/444/232
f 315/446/232 316/445/232 360/552/329
f 314/443/232 315/446/232 324/520/297
f 338/530/307 317/448/232 318/447/232
f 360/552/329 316/445/232 317/448/232
f 319/450/232 320/449/232 363/556/333
f 318/447/232 319/450/232 333/528/305
f 347/538/315 321/452/232 322/451/232
f 363/556/333 320/449/232 321/452/232
f 323/453/232 308/438/232 366/559/336
f 322/451/232 323/453/232 342/536/313
